-8 -16 -32 -32 -32 32 -48 48 -48 48 -48 -48 -16 -8 416
992
312 -16 -16 -8 8 -32 -16 -96 424
-8 976
-80 -56 -48 784
-32 -72 120 -104 48 -96 -136 328
-8 -8 -48 248 -80 -72 -8 -16 -32 -32 360
16 -24 24 -16 -8 -48 -56 -16 -8 -32 -8 -32 -56 -40 496
-8 16 -32 -64 128 -256 440
-48 -40 -56 -32 -16 -64 -80 -96 496
-24 -160 32 -24 -8 -96 8 -24 -56 -144 -184 -40 -96
-96 -8 -40 64 -96 -240 -24 -64 296
